…
### creating bootstrap data

``` r
set.seed(1234)
food_boot = bootstraps(food, times = 30)
food_boot
```

    ## # Bootstrap sampling 
    ## # A tibble: 30 x 2
    ##    splits           id         
    ##    <list>           <chr>      
    ##  1 <split [130/48]> Bootstrap01
    ##  2 <split [130/49]> Bootstrap02
    ##  3 <split [130/49]> Bootstrap03
    ##  4 <split [130/51]> Bootstrap04
    ##  5 <split [130/47]> Bootstrap05
    ##  6 <split [130/51]> Bootstrap06
    ##  7 <split [130/57]> Bootstrap07
    ##  8 <split [130/51]> Bootstrap08
    ##  9 <split [130/44]> Bootstrap09
    ## 10 <split [130/53]> Bootstrap10
    ## # ... with 20 more rows
…
``` r
doParallel::registerDoParallel()
rf_grid = tune_grid(rf_spec, in_asia ~ ., food_boot)
```

    ## i Creating pre-processing data to finalize unknown parameter: mtry

``` r
rf_grid
```

    ## # Tuning results
    ## # Bootstrap sampling 
    ## # A tibble: 30 x 4
    ##    splits           id          .metrics          .notes          
    ##    <list>           <chr>       <list>            <list>          
    ##  1 <split [130/48]> Bootstrap01 <tibble [20 x 6]> <tibble [0 x 1]>
    ##  2 <split [130/49]> Bootstrap02 <tibble [20 x 6]> <tibble [0 x 1]>
    ##  3 <split [130/49]> Bootstrap03 <tibble [20 x 6]> <tibble [0 x 1]>
    ##  4 <split [130/51]> Bootstrap04 <tibble [20 x 6]> <tibble [0 x 1]>
    ##  5 <split [130/47]> Bootstrap05 <tibble [20 x 6]> <tibble [0 x 1]>
    ##  6 <split [130/51]> Bootstrap06 <tibble [20 x 6]> <tibble [0 x 1]>
    ##  7 <split [130/57]> Bootstrap07 <tibble [20 x 6]> <tibble [0 x 1]>
    ##  8 <split [130/51]> Bootstrap08 <tibble [20 x 6]> <tibble [0 x 1]>
    ##  9 <split [130/44]> Bootstrap09 <tibble [20 x 6]> <tibble [0 x 1]>
    ## 10 <split [130/53]> Bootstrap10 <tibble [20 x 6]> <tibble [0 x 1]>
    ## # ... with 20 more rows
…
